SKU_CODE;NET_PRICE;GROSS_PRICE;ATTR_VALUE_1;ATTR_VALUE_2;ATTR_VALUE_3;ATTR_VALUE_4;ATTR_VALUE_5;;ATTR_NAME_6;ATTR_VALUE_6;;ATTR_NAME_7;ATTR_VALUE_7;
EST_DO_ECO_A_WD1;175;175;domestic;Economic;A;0-350;Letter;,;ZPO;FALSE;,;EPDZ;FALSE;EST_DO_ECO_A_WD1175175domesticEconomicA0-350Letter,ZPOFALSE,EPDZFALSE
EST_DO_ECO_A_WD2;370;370;domestic;Economic;A;350-1000;Letter;,;ZPO;FALSE;,;EPDZ;FALSE;
EST_DO_ECO_A_WD3;630;630;domestic;Economic;A;1000-2000;Letter;,;ZPO;FALSE;,;EPDZ;FALSE;
EST_DO_ECO_B_WD1;375;375;domestic;Economic;B;0-350;Letter;,;ZPO;FALSE;,;EPDZ;FALSE;
EST_DO_ECO_B_WD2;475;475;domestic;Economic;B;350-1000;Letter;,;ZPO;FALSE;,;EPDZ;FALSE;
EST_DO_ECO_B_WD3;730;730;domestic;Economic;B;1000-2000;Letter;,;ZPO;FALSE;,;EPDZ;FALSE;
EST_DO_ECO_PC;175;175;domestic;Economic;A;0-350;Postcard;,;ZPO;FALSE;,;EPDZ;FALSE;
EST_DO_PRI_A_WD1;235;235;domestic;Priority;A;0-350;Letter;,;ZPO;FALSE;,;EPDZ;FALSE;
EST_DO_PRI_A_WD2;450;450;domestic;Priority;A;350-1000;Letter;,;ZPO;FALSE;,;EPDZ;FALSE;
EST_DO_PRI_A_WD3;880;880;domestic;Priority;A;1000-2000;Letter;,;ZPO;FALSE;,;EPDZ;FALSE;
EST_DO_PRI_B_WD1;510;510;domestic;Priority;B;0-350;Letter;,;ZPO;FALSE;,;EPDZ;FALSE;
EST_DO_PRI_B_WD2;710;710;domestic;Priority;B;350-1000;Letter;,;ZPO;FALSE;,;EPDZ;FALSE;
EST_DO_PRI_B_WD3;1090;1090;domestic;Priority;B;1000-2000;Letter;,;ZPO;FALSE;,;EPDZ;FALSE;
EST_DO_PRI_PC;235;235;domestic;Priority;A;0-350;Postcard;,;ZPO;FALSE;,;EPDZ;FALSE;
EST_INT_ECO_EU_WD4;500;500;EU;Economic;A;0-50;Letter;,;ZPO;FALSE;,;EPDZ;FALSE;
EST_INT_ECO_EU_WD5;900;900;EU;Economic;A;50-100;Letter;,;ZPO;FALSE;,;EPDZ;FALSE;
EST_INT_ECO_EU_WD6;1000;1000;EU;Economic;A;100-350;Letter;,;ZPO;FALSE;,;EPDZ;FALSE;
EST_INT_ECO_EU_WD7;1100;1100;EU;Economic;A;350-500;Letter;,;ZPO;FALSE;,;EPDZ;FALSE;
EST_INT_ECO_EU_WD8;2130;2130;EU;Economic;A;500-1000;Letter;,;ZPO;FALSE;,;EPDZ;FALSE;
EST_INT_ECO_EU_WD9;4090;4090;EU;Economic;A;1000-2000;Letter;,;ZPO;FALSE;,;EPDZ;FALSE;
EST_INT_ECO_NONEU_WD4;500;500;NONEU;Economic;A;0-50;Letter;,;ZPO;FALSE;,;EPDZ;FALSE;
EST_INT_ECO_NONEU_WD5;900;900;NONEU;Economic;A;50-100;Letter;,;ZPO;FALSE;,;EPDZ;FALSE;
EST_INT_ECO_NONEU_WD6;1000;1000;NONEU;Economic;A;100-350;Letter;,;ZPO;FALSE;,;EPDZ;FALSE;
EST_INT_ECO_NONEU_WD7;1150;1150;NONEU;Economic;A;350-500;Letter;,;ZPO;FALSE;,;EPDZ;FALSE;
EST_INT_ECO_NONEU_WD8;2180;2180;NONEU;Economic;A;500-1000;Letter;,;ZPO;FALSE;,;EPDZ;FALSE;
EST_INT_ECO_NONEU_WD9;4140;4140;NONEU;Economic;A;1000-2000;Letter;,;ZPO;FALSE;,;EPDZ;FALSE;
EST_INT_PRI_ZONEA_WD4;520;520;ZONEA;Priority;A;0-50;Letter;,;ZPO;FALSE;,;EPDZ;FALSE;
EST_INT_PRI_ZONEA_WD5;1150;1150;ZONEA;Priority;A;50-100;Letter;,;ZPO;FALSE;,;EPDZ;FALSE;
EST_INT_PRI_ZONEA_WD6;1300;1300;ZONEA;Priority;A;100-350;Letter;,;ZPO;FALSE;,;EPDZ;FALSE;
EST_INT_PRI_ZONEA_WD7;1530;1530;ZONEA;Priority;A;350-500;Letter;,;ZPO;FALSE;,;EPDZ;FALSE;
EST_INT_PRI_ZONEA_WD8;2930;2930;ZONEA;Priority;A;500-1000;Letter;,;ZPO;FALSE;,;EPDZ;FALSE;
EST_INT_PRI_ZONEA_WD9;5890;5890;ZONEA;Priority;A;1000-2000;Letter;,;ZPO;FALSE;,;EPDZ;FALSE;
EST_INT_PRI_ZONEB_WD4;520;520;ZONEB;Priority;A;0-50;Letter;,;ZPO;FALSE;,;EPDZ;FALSE;
EST_INT_PRI_ZONEB_WD5;1150;1150;ZONEB;Priority;A;50-100;Letter;,;ZPO;FALSE;,;EPDZ;FALSE;
EST_INT_PRI_ZONEB_WD6;1300;1300;ZONEB;Priority;A;100-350;Letter;,;ZPO;FALSE;,;EPDZ;FALSE;
EST_INT_PRI_ZONEB_WD7;1930;1930;ZONEB;Priority;A;350-500;Letter;,;ZPO;FALSE;,;EPDZ;FALSE;
EST_INT_PRI_ZONEB_WD8;3800;3800;ZONEB;Priority;A;500-1000;Letter;,;ZPO;FALSE;,;EPDZ;FALSE;
EST_INT_PRI_ZONEB_WD9;7700;7700;ZONEB;Priority;A;1000-2000;Letter;,;ZPO;FALSE;,;EPDZ;FALSE;
EST_INT_PRI_ZONEC_WD4;520;520;ZONEC;Priority;A;0-50;Letter;,;ZPO;FALSE;,;EPDZ;FALSE;
EST_INT_PRI_ZONEC_WD5;1150;1150;ZONEC;Priority;A;50-100;Letter;,;ZPO;FALSE;,;EPDZ;FALSE;
EST_INT_PRI_ZONEC_WD6;1300;1300;ZONEC;Priority;A;100-350;Letter;,;ZPO;FALSE;,;EPDZ;FALSE;
EST_INT_PRI_ZONEC_WD7;2400;2400;ZONEC;Priority;A;350-500;Letter;,;ZPO;FALSE;,;EPDZ;FALSE;
EST_INT_PRI_ZONEC_WD8;4500;4500;ZONEC;Priority;A;500-1000;Letter;,;ZPO;FALSE;,;EPDZ;FALSE;
EST_INT_PRI_ZONEC_WD9;9500;9500;ZONEC;Priority;A;1000-2000;Letter;,;ZPO;FALSE;,;EPDZ;FALSE;
EST_INT_PRI_ZONED_WD4;520;520;ZONED;Priority;A;0-50;Letter;,;ZPO;FALSE;,;EPDZ;FALSE;
EST_INT_PRI_ZONED_WD5;1150;1150;ZONED;Priority;A;50-100;Letter;,;ZPO;FALSE;,;EPDZ;FALSE;
EST_INT_PRI_ZONED_WD6;1300;1300;ZONED;Priority;A;100-350;Letter;,;ZPO;FALSE;,;EPDZ;FALSE;
EST_INT_PRI_ZONED_WD7;3450;3450;ZONED;Priority;A;350-500;Letter;,;ZPO;FALSE;,;EPDZ;FALSE;
EST_INT_PRI_ZONED_WD8;6800;6800;ZONED;Priority;A;500-1000;Letter;,;ZPO;FALSE;,;EPDZ;FALSE;
EST_INT_PRI_ZONED_WD9;14700;14700;ZONED;Priority;A;1000-2000;Letter;,;ZPO;FALSE;,;EPDZ;FALSE;
EST_REG_1;235;235;domestic;Priority;A;0-350;Registered;,;ZPO;FALSE;,;EPDZ;FALSE;
EST_REG_10;700;890;domestic;Priority;B;0-350;Registered;,;ZPO;TRUE;,;EPDZ;FALSE;
EST_REG_11;900;1090;domestic;Priority;B;350-1000;Registered;,;ZPO;TRUE;,;EPDZ;FALSE;
EST_REG_12;1280;1470;domestic;Priority;B;1000-2000;Registered;,;ZPO;TRUE;,;EPDZ;FALSE;
EST_REG_13;285;335;domestic;Priority;A;0-350;Registered;,;ZPO;FALSE;,;EPDZ;TRUE;
EST_REG_14;500;550;domestic;Priority;A;350-1000;Registered;,;ZPO;FALSE;,;EPDZ;TRUE;
EST_REG_15;930;980;domestic;Priority;A;1000-2000;Registered;,;ZPO;FALSE;,;EPDZ;TRUE;
EST_REG_16;560;610;domestic;Priority;B;0-350;Registered;,;ZPO;FALSE;,;EPDZ;TRUE;
EST_REG_17;760;810;domestic;Priority;B;350-1000;Registered;,;ZPO;FALSE;,;EPDZ;TRUE;
EST_REG_18;1140;1190;domestic;Priority;B;1000-2000;Registered;,;ZPO;FALSE;,;EPDZ;TRUE;
EST_REG_19;475;715;domestic;Priority;A;0-350;Registered;,;ZPO;TRUE;,;EPDZ;TRUE;
EST_REG_2;450;450;domestic;Priority;A;350-1000;Registered;,;ZPO;FALSE;,;EPDZ;FALSE;
EST_REG_20;690;930;domestic;Priority;A;350-1000;Registered;,;ZPO;TRUE;,;EPDZ;TRUE;
EST_REG_21;1120;1360;domestic;Priority;A;1000-2000;Registered;,;ZPO;TRUE;,;EPDZ;TRUE;
EST_REG_22;750;990;domestic;Priority;B;0-350;Registered;,;ZPO;TRUE;,;EPDZ;TRUE;
EST_REG_23;950;1190;domestic;Priority;B;350-1000;Registered;,;ZPO;TRUE;,;EPDZ;TRUE;
EST_REG_24;1330;1570;domestic;Priority;B;1000-2000;Registered;,;ZPO;TRUE;,;EPDZ;TRUE;
EST_REG_3;880;880;domestic;Priority;A;1000-2000;Registered;,;ZPO;FALSE;,;EPDZ;FALSE;
EST_REG_4;510;510;domestic;Priority;B;0-350;Registered;,;ZPO;FALSE;,;EPDZ;FALSE;
EST_REG_49;520;520;ZONEA;Priority;A;0-50;Registered;,;ZPO;FALSE;,;EPDZ;FALSE;
EST_REG_5;710;710;domestic;Priority;B;350-1000;Registered;,;ZPO;FALSE;,;EPDZ;FALSE;
EST_REG_50;1150;1150;ZONEA;Priority;A;50-100;Registered;,;ZPO;FALSE;,;EPDZ;FALSE;
EST_REG_51;1300;1300;ZONEA;Priority;A;100-350;Registered;,;ZPO;FALSE;,;EPDZ;FALSE;
EST_REG_52;1530;1530;ZONEA;Priority;A;350-500;Registered;,;ZPO;FALSE;,;EPDZ;FALSE;
EST_REG_53;2930;2930;ZONEA;Priority;A;500-1000;Registered;,;ZPO;FALSE;,;EPDZ;FALSE;
EST_REG_54;5890;5890;ZONEA;Priority;A;1000-2000;Registered;,;ZPO;FALSE;,;EPDZ;FALSE;
EST_REG_55;520;520;ZONEB;Priority;A;0-50;Registered;,;ZPO;FALSE;,;EPDZ;FALSE;
EST_REG_56;1150;1150;ZONEB;Priority;A;50-100;Registered;,;ZPO;FALSE;,;EPDZ;FALSE;
EST_REG_57;1300;1300;ZONEB;Priority;A;100-350;Registered;,;ZPO;FALSE;,;EPDZ;FALSE;
EST_REG_58;1930;1930;ZONEB;Priority;A;350-500;Registered;,;ZPO;FALSE;,;EPDZ;FALSE;
EST_REG_59;3800;3800;ZONEB;Priority;A;500-1000;Registered;,;ZPO;FALSE;,;EPDZ;FALSE;
EST_REG_6;1090;1090;domestic;Priority;B;1000-2000;Registered;,;ZPO;FALSE;,;EPDZ;FALSE;
EST_REG_60;7700;7700;ZONEB;Priority;A;1000-2000;Registered;,;ZPO;FALSE;,;EPDZ;FALSE;
EST_REG_61;520;520;ZONEC;Priority;A;0-50;Registered;,;ZPO;FALSE;,;EPDZ;FALSE;
EST_REG_62;1150;1150;ZONEC;Priority;A;50-100;Registered;,;ZPO;FALSE;,;EPDZ;FALSE;
EST_REG_63;1300;1300;ZONEC;Priority;A;100-350;Registered;,;ZPO;FALSE;,;EPDZ;FALSE;
EST_REG_64;2400;2400;ZONEC;Priority;A;350-500;Registered;,;ZPO;FALSE;,;EPDZ;FALSE;
EST_REG_65;4500;4500;ZONEC;Priority;A;500-1000;Registered;,;ZPO;FALSE;,;EPDZ;FALSE;
EST_REG_66;9500;9500;ZONEC;Priority;A;1000-2000;Registered;,;ZPO;FALSE;,;EPDZ;FALSE;
EST_REG_67;520;520;ZONED;Priority;A;0-50;Registered;,;ZPO;FALSE;,;EPDZ;FALSE;
EST_REG_68;1150;1150;ZONED;Priority;A;50-100;Registered;,;ZPO;FALSE;,;EPDZ;FALSE;
EST_REG_69;1300;1300;ZONED;Priority;A;100-350;Registered;,;ZPO;FALSE;,;EPDZ;FALSE;
EST_REG_7;425;615;domestic;Priority;A;0-350;Registered;,;ZPO;TRUE;,;EPDZ;FALSE;
EST_REG_70;3450;3450;ZONED;Priority;A;350-500;Registered;,;ZPO;FALSE;,;EPDZ;FALSE;
EST_REG_71;6800;6800;ZONED;Priority;A;500-1000;Registered;,;ZPO;FALSE;,;EPDZ;FALSE;
EST_REG_72;14700;14700;ZONED;Priority;A;1000-2000;Registered;,;ZPO;FALSE;,;EPDZ;FALSE;
EST_REG_73;820;1120;ZONEA;Priority;A;0-50;Registered;,;ZPO;TRUE;,;EPDZ;FALSE;
EST_REG_74;1450;1750;ZONEA;Priority;A;50-100;Registered;,;ZPO;TRUE;,;EPDZ;FALSE;
EST_REG_75;1600;1900;ZONEA;Priority;A;100-350;Registered;,;ZPO;TRUE;,;EPDZ;FALSE;
EST_REG_76;1830;2130;ZONEA;Priority;A;350-500;Registered;,;ZPO;TRUE;,;EPDZ;FALSE;
EST_REG_77;3230;3530;ZONEA;Priority;A;500-1000;Registered;,;ZPO;TRUE;,;EPDZ;FALSE;
EST_REG_78;6190;6490;ZONEA;Priority;A;1000-2000;Registered;,;ZPO;TRUE;,;EPDZ;FALSE;
EST_REG_79;820;1120;ZONEB;Priority;A;0-50;Registered;,;ZPO;TRUE;,;EPDZ;FALSE;
EST_REG_8;640;830;domestic;Priority;A;350-1000;Registered;,;ZPO;TRUE;,;EPDZ;FALSE;
EST_REG_80;1450;1750;ZONEB;Priority;A;50-100;Registered;,;ZPO;TRUE;,;EPDZ;FALSE;
EST_REG_81;1600;1900;ZONEB;Priority;A;100-350;Registered;,;ZPO;TRUE;,;EPDZ;FALSE;
EST_REG_82;2230;2530;ZONEB;Priority;A;350-500;Registered;,;ZPO;TRUE;,;EPDZ;FALSE;
EST_REG_83;4100;4400;ZONEB;Priority;A;500-1000;Registered;,;ZPO;TRUE;,;EPDZ;FALSE;
EST_REG_84;8000;8300;ZONEB;Priority;A;1000-2000;Registered;,;ZPO;TRUE;,;EPDZ;FALSE;
EST_REG_85;820;1120;ZONEC;Priority;A;0-50;Registered;,;ZPO;TRUE;,;EPDZ;FALSE;
EST_REG_86;1450;1750;ZONEC;Priority;A;50-100;Registered;,;ZPO;TRUE;,;EPDZ;FALSE;
EST_REG_87;1600;1900;ZONEC;Priority;A;100-350;Registered;,;ZPO;TRUE;,;EPDZ;FALSE;
EST_REG_88;2700;3000;ZONEC;Priority;A;350-500;Registered;,;ZPO;TRUE;,;EPDZ;FALSE;
EST_REG_89;4800;5100;ZONEC;Priority;A;500-1000;Registered;,;ZPO;TRUE;,;EPDZ;FALSE;
EST_REG_9;1070;1260;domestic;Priority;A;1000-2000;Registered;,;ZPO;TRUE;,;EPDZ;FALSE;
EST_REG_90;9800;10100;ZONEC;Priority;A;1000-2000;Registered;,;ZPO;TRUE;,;EPDZ;FALSE;
EST_REG_91;820;1120;ZONED;Priority;A;0-50;Registered;,;ZPO;TRUE;,;EPDZ;FALSE;
EST_REG_92;1450;1750;ZONED;Priority;A;50-100;Registered;,;ZPO;TRUE;,;EPDZ;FALSE;
EST_REG_93;1600;1900;ZONED;Priority;A;100-350;Registered;,;ZPO;TRUE;,;EPDZ;FALSE;
EST_REG_94;3750;4050;ZONED;Priority;A;350-500;Registered;,;ZPO;TRUE;,;EPDZ;FALSE;
EST_REG_95;7100;7400;ZONED;Priority;A;500-1000;Registered;,;ZPO;TRUE;,;EPDZ;FALSE;
EST_REG_96;15000;15300;ZONED;Priority;A;1000-2000;Registered;,;ZPO;TRUE;,;EPDZ;FALSE;
