SKU_CODE;NAME DEFAULT;NAME LANG;DESCRIPTION DEFAULT;DESCRIPTION LANG;AVAILABLE (1/0);NET_PRICE;VAT_CODE;VAT_VALUE;VAT_PRICE;GROSS_PRICE;DATE_TO_MARKET;WEIGHT_GR;DISPATCH_TIME_MM;TYPE;EAN;ATTR_NAME_1;ATTR_VALUE_1;ATTR_NAME_2;ATTR_VALUE_2;ATTR_NAME_3;ATTR_VALUE_3;ATTR_NAME_4;ATTR_VALUE_4;ATTR_NAME_5;ATTR_VALUE_5;ATTR_NAME_6;ATTR_VALUE_6;ATTR_NAME_7;ATTR_VALUE_7;ATTR_NAME_8;ATTR_VALUE_8
EST_DO_ECO_A_WD1;neoznaczek;neoznaczek;neoStamp - domestic - Economic - A - 0-350;neoStamp - domestic - economic - A - 0-350;1;175;A;0;0;175;30-06-2013;;;CONS;;Destination;domestic;ServiceCategory;Economic;Size;A;Weight;0-350;ConsType;Letter;ZPO;FALSE;EPDZ;FALSE;;
EST_DO_ECO_A_WD2;neoznaczek;neoznaczek;neoStamp - domestic - Economic - A - 350-1000;neoStamp - domestic - economic - A - 350-1000;1;370;A;0;0;370;30-06-2013;;;CONS;;Destination;domestic;ServiceCategory;Economic;Size;A;Weight;350-1000;ConsType;Letter;ZPO;FALSE;EPDZ;FALSE;;
EST_DO_ECO_A_WD3;neoznaczek;neoznaczek;neoStamp - domestic - Economic - A - 1000-2000;neoStamp - domestic - economic - A - 1000-2000;1;630;A;0;0;630;30-06-2013;;;CONS;;Destination;domestic;ServiceCategory;Economic;Size;A;Weight;1000-2000;ConsType;Letter;ZPO;FALSE;EPDZ;FALSE;;
EST_DO_ECO_B_WD1;neoznaczek;neoznaczek;neoStamp - domestic - Economic - B - 0-350;neoStamp - domestic - economic - B - 0-350;1;375;A;0;0;375;30-06-2013;;;CONS;;Destination;domestic;ServiceCategory;Economic;Size;B;Weight;0-350;ConsType;Letter;ZPO;FALSE;EPDZ;FALSE;;
EST_DO_ECO_B_WD2;neoznaczek;neoznaczek;neoStamp - domestic - Economic - B - 350-1000;neoStamp - domestic - economic - B - 350-1000;1;475;A;0;0;475;30-06-2013;;;CONS;;Destination;domestic;ServiceCategory;Economic;Size;B;Weight;350-1000;ConsType;Letter;ZPO;FALSE;EPDZ;FALSE;;
EST_DO_ECO_B_WD3;neoznaczek;neoznaczek;neoStamp - domestic - Economic - B - 1000-2000;neoStamp - domestic - economic - B - 1000-2000;1;730;A;0;0;730;30-06-2013;;;CONS;;Destination;domestic;ServiceCategory;Economic;Size;B;Weight;1000-2000;ConsType;Letter;ZPO;FALSE;EPDZ;FALSE;;
EST_DO_ECO_PC;neoznaczek;neoznaczek;neoStamp - domestic - Economic - Postcard;neoStamp - domestic - economic - postcard;1;175;A;0;0;175;30-06-2013;;;CONS;;Destination;domestic;ServiceCategory;Economic;Size;A;Weight;0-350;ConsType;Postcard;ZPO;FALSE;EPDZ;FALSE;;
EST_DO_PRI_A_WD1;neoznaczek;neoznaczek;neoStamp - domestic - Priority - A - 0-350;neoStamp - domestic - priority - A - 0-350;1;235;A;0;0;235;30-06-2013;;;CONS;;Destination;domestic;ServiceCategory;Priority;Size;A;Weight;0-350;ConsType;Letter;ZPO;FALSE;EPDZ;FALSE;;
EST_DO_PRI_A_WD2;neoznaczek;neoznaczek;neoStamp - domestic - Priority - A - 350-1000;neoStamp - domestic - priority - A - 350-1000;1;450;A;0;0;450;30-06-2013;;;CONS;;Destination;domestic;ServiceCategory;Priority;Size;A;Weight;350-1000;ConsType;Letter;ZPO;FALSE;EPDZ;FALSE;;
EST_DO_PRI_A_WD3;neoznaczek;neoznaczek;neoStamp - domestic - Priority - A - 1000-2000;neoStamp - domestic - priority - A - 1000-2000;1;880;A;0;0;880;30-06-2013;;;CONS;;Destination;domestic;ServiceCategory;Priority;Size;A;Weight;1000-2000;ConsType;Letter;ZPO;FALSE;EPDZ;FALSE;;
EST_DO_PRI_B_WD1;neoznaczek;neoznaczek;neoStamp - domestic - Priority - B - 0-350;neoStamp - domestic - priority - B - 0-350;1;510;A;0;0;510;30-06-2013;;;CONS;;Destination;domestic;ServiceCategory;Priority;Size;B;Weight;0-350;ConsType;Letter;ZPO;FALSE;EPDZ;FALSE;;
EST_DO_PRI_B_WD2;neoznaczek;neoznaczek;neoStamp - domestic - Priority - B - 350-1000;neoStamp - domestic - priority - B - 350-1000;1;710;A;0;0;710;30-06-2013;;;CONS;;Destination;domestic;ServiceCategory;Priority;Size;B;Weight;350-1000;ConsType;Letter;ZPO;FALSE;EPDZ;FALSE;;
EST_DO_PRI_B_WD3;neoznaczek;neoznaczek;neoStamp - domestic - Priority - B - 1000-2000;neoStamp - domestic - priority - B - 1000-2000;1;1090;A;0;0;1090;30-06-2013;;;CONS;;Destination;domestic;ServiceCategory;Priority;Size;B;Weight;1000-2000;ConsType;Letter;ZPO;FALSE;EPDZ;FALSE;;
EST_DO_PRI_PC;neoznaczek;neoznaczek;neoStamp - domestic - Priority - Postcard;neoStamp - domestic - priority - postcard;1;235;A;0;0;235;30-06-2013;;;CONS;;Destination;domestic;ServiceCategory;Priority;Size;A;Weight;0-350;ConsType;Postcard;ZPO;FALSE;EPDZ;FALSE;;
EST_INT_ECO_EU_WD4;neoznaczek;neoznaczek;neoStamp - international - economic - EU - 0-50;neoStamp - international - economic - EU - 0-50;1;500;A;0;0;500;01-02-2014;;;CONS;;Destination;EU;ServiceCategory;Economic;Size;A;Weight;0-50;ConsType;Letter;ZPO;FALSE;EPDZ;FALSE;;
EST_INT_ECO_EU_WD5;neoznaczek;neoznaczek;neoStamp - international - economic - EU - 50-100;neoStamp - international - economic - EU - 50-100;1;900;A;0;0;900;01-02-2014;;;CONS;;Destination;EU;ServiceCategory;Economic;Size;A;Weight;50-100;ConsType;Letter;ZPO;FALSE;EPDZ;FALSE;;
EST_INT_ECO_EU_WD6;neoznaczek;neoznaczek;neoStamp - international - economic - EU - 100-350;neoStamp - international - economic - EU - 100-350;1;1000;A;0;0;1000;01-02-2014;;;CONS;;Destination;EU;ServiceCategory;Economic;Size;A;Weight;100-350;ConsType;Letter;ZPO;FALSE;EPDZ;FALSE;;
EST_INT_ECO_EU_WD7;neoznaczek;neoznaczek;neoStamp - international - economic - EU - 350-500;neoStamp - international - economic - EU - 350-500;1;1100;A;0;0;1100;01-02-2014;;;CONS;;Destination;EU;ServiceCategory;Economic;Size;A;Weight;350-500;ConsType;Letter;ZPO;FALSE;EPDZ;FALSE;;
EST_INT_ECO_EU_WD8;neoznaczek;neoznaczek;neoStamp - international - economic - EU - 500-1000;neoStamp - international - economic - EU - 500-1000;1;2130;A;0;0;2130;01-02-2014;;;CONS;;Destination;EU;ServiceCategory;Economic;Size;A;Weight;500-1000;ConsType;Letter;ZPO;FALSE;EPDZ;FALSE;;
EST_INT_ECO_EU_WD9;neoznaczek;neoznaczek;neoStamp - international - economic - EU - 1000-2000;neoStamp - international - economic - EU - 1000-2000;1;4090;A;0;0;4090;01-02-2014;;;CONS;;Destination;EU;ServiceCategory;Economic;Size;A;Weight;1000-2000;ConsType;Letter;ZPO;FALSE;EPDZ;FALSE;;
EST_INT_ECO_NONEU_WD4;neoznaczek;neoznaczek;neoStamp - international - economic - NONEU - 0-50;neoStamp - international - economic - NONEU - 0-50;1;500;A;0;0;500;01-02-2014;;;CONS;;Destination;NONEU;ServiceCategory;Economic;Size;A;Weight;0-50;ConsType;Letter;ZPO;FALSE;EPDZ;FALSE;;
EST_INT_ECO_NONEU_WD5;neoznaczek;neoznaczek;neoStamp - international - economic - NONEU - 50-100;neoStamp - international - economic - NONEU - 50-100;1;900;A;0;0;900;01-02-2014;;;CONS;;Destination;NONEU;ServiceCategory;Economic;Size;A;Weight;50-100;ConsType;Letter;ZPO;FALSE;EPDZ;FALSE;;
EST_INT_ECO_NONEU_WD6;neoznaczek;neoznaczek;neoStamp - international - economic - NONEU - 100-350;neoStamp - international - economic - NONEU - 100-350;1;1000;A;0;0;1000;01-02-2014;;;CONS;;Destination;NONEU;ServiceCategory;Economic;Size;A;Weight;100-350;ConsType;Letter;ZPO;FALSE;EPDZ;FALSE;;
EST_INT_ECO_NONEU_WD7;neoznaczek;neoznaczek;neoStamp - international - economic - NONEU - 350-500;neoStamp - international - economic - NONEU - 350-500;1;1150;A;0;0;1150;01-02-2014;;;CONS;;Destination;NONEU;ServiceCategory;Economic;Size;A;Weight;350-500;ConsType;Letter;ZPO;FALSE;EPDZ;FALSE;;
EST_INT_ECO_NONEU_WD8;neoznaczek;neoznaczek;neoStamp - international - economic - NONEU - 500-1000;neoStamp - international - economic - NONEU - 500-1000;1;2180;A;0;0;2180;01-02-2014;;;CONS;;Destination;NONEU;ServiceCategory;Economic;Size;A;Weight;500-1000;ConsType;Letter;ZPO;FALSE;EPDZ;FALSE;;
EST_INT_ECO_NONEU_WD9;neoznaczek;neoznaczek;neoStamp - international - economic - NONEU - 1000-2000;neoStamp - international - economic - NONEU - 1000-2000;1;4140;A;0;0;4140;01-02-2014;;;CONS;;Destination;NONEU;ServiceCategory;Economic;Size;A;Weight;1000-2000;ConsType;Letter;ZPO;FALSE;EPDZ;FALSE;;
EST_INT_PRI_ZONEA_WD4;neoznaczek;neoznaczek;neoStamp - international - priority - ZONEA - 0-50;neoStamp - international - priority - ZONEA - 0-50;1;520;A;0;0;520;01-02-2014;;;CONS;;Destination;ZONEA;ServiceCategory;Priority;Size;A;Weight;0-50;ConsType;Letter;ZPO;FALSE;EPDZ;FALSE;;
EST_INT_PRI_ZONEA_WD5;neoznaczek;neoznaczek;neoStamp - international - priority - ZONEA - 50-100;neoStamp - international - priority - ZONEA - 50-100;1;1150;A;0;0;1150;01-02-2014;;;CONS;;Destination;ZONEA;ServiceCategory;Priority;Size;A;Weight;50-100;ConsType;Letter;ZPO;FALSE;EPDZ;FALSE;;
EST_INT_PRI_ZONEA_WD6;neoznaczek;neoznaczek;neoStamp - international - priority - ZONEA - 100-350;neoStamp - international - priority - ZONEA - 100-350;1;1300;A;0;0;1300;01-02-2014;;;CONS;;Destination;ZONEA;ServiceCategory;Priority;Size;A;Weight;100-350;ConsType;Letter;ZPO;FALSE;EPDZ;FALSE;;
EST_INT_PRI_ZONEA_WD7;neoznaczek;neoznaczek;neoStamp - international - priority - ZONEA - 350-500;neoStamp - international - priority - ZONEA - 350-500;1;1530;A;0;0;1530;01-02-2014;;;CONS;;Destination;ZONEA;ServiceCategory;Priority;Size;A;Weight;350-500;ConsType;Letter;ZPO;FALSE;EPDZ;FALSE;;
EST_INT_PRI_ZONEA_WD8;neoznaczek;neoznaczek;neoStamp - international - priority - ZONEA - 500-1000;neoStamp - international - priority - ZONEA - 500-1000;1;2930;A;0;0;2930;01-02-2014;;;CONS;;Destination;ZONEA;ServiceCategory;Priority;Size;A;Weight;500-1000;ConsType;Letter;ZPO;FALSE;EPDZ;FALSE;;
EST_INT_PRI_ZONEA_WD9;neoznaczek;neoznaczek;neoStamp - international - priority - ZONEA - 1000-2000;neoStamp - international - priority - ZONEA - 1000-2000;1;5890;A;0;0;5890;01-02-2014;;;CONS;;Destination;ZONEA;ServiceCategory;Priority;Size;A;Weight;1000-2000;ConsType;Letter;ZPO;FALSE;EPDZ;FALSE;;
EST_INT_PRI_ZONEB_WD4;neoznaczek;neoznaczek;neoStamp - international - priority - ZONEB - 0-50;neoStamp - international - priority - ZONEB - 0-50;1;520;A;0;0;520;01-02-2014;;;CONS;;Destination ;ZONEB;ServiceCategory;Priority;Size;A;Weight;0-50;ConsType;Letter;ZPO;FALSE;EPDZ;FALSE;;
EST_INT_PRI_ZONEB_WD5;neoznaczek;neoznaczek;neoStamp - international - priority - ZONEB - 50-100;neoStamp - international - priority - ZONEB - 50-100;1;1150;A;0;0;1150;01-02-2014;;;CONS;;Destination ;ZONEB;ServiceCategory;Priority;Size;A;Weight;50-100;ConsType;Letter;ZPO;FALSE;EPDZ;FALSE;;
EST_INT_PRI_ZONEB_WD6;neoznaczek;neoznaczek;neoStamp - international - priority - ZONEB - 100-350;neoStamp - international - priority - ZONEB - 100-350;1;1300;A;0;0;1300;01-02-2014;;;CONS;;Destination ;ZONEB;ServiceCategory;Priority;Size;A;Weight;100-350;ConsType;Letter;ZPO;FALSE;EPDZ;FALSE;;
EST_INT_PRI_ZONEB_WD7;neoznaczek;neoznaczek;neoStamp - international - priority - ZONEB - 350-500;neoStamp - international - priority - ZONEB - 350-500;1;1930;A;0;0;1930;01-02-2014;;;CONS;;Destination ;ZONEB;ServiceCategory;Priority;Size;A;Weight;350-500;ConsType;Letter;ZPO;FALSE;EPDZ;FALSE;;
EST_INT_PRI_ZONEB_WD8;neoznaczek;neoznaczek;neoStamp - international - priority - ZONEB - 500-1000;neoStamp - international - priority - ZONEB - 500-1000;1;3800;A;0;0;3800;01-02-2014;;;CONS;;Destination ;ZONEB;ServiceCategory;Priority;Size;A;Weight;500-1000;ConsType;Letter;ZPO;FALSE;EPDZ;FALSE;;
EST_INT_PRI_ZONEB_WD9;neoznaczek;neoznaczek;neoStamp - international - priority - ZONEB - 1000-2000;neoStamp - international - priority - ZONEB - 1000-2000;1;7700;A;0;0;7700;01-02-2014;;;CONS;;Destination ;ZONEB;ServiceCategory;Priority;Size;A;Weight;1000-2000;ConsType;Letter;ZPO;FALSE;EPDZ;FALSE;;
EST_INT_PRI_ZONEC_WD4;neoznaczek;neoznaczek;neoStamp - international - priority - ZONEC - 0-50;neoStamp - international - priority - ZONEC - 0-50;1;520;A;0;0;520;01-02-2014;;;CONS;;Destination ;ZONEC;ServiceCategory;Priority;Size;A;Weight;0-50;ConsType;Letter;ZPO;FALSE;EPDZ;FALSE;;
EST_INT_PRI_ZONEC_WD5;neoznaczek;neoznaczek;neoStamp - international - priority - ZONEC - 50-100;neoStamp - international - priority - ZONEC - 50-100;1;1150;A;0;0;1150;01-02-2014;;;CONS;;Destination ;ZONEC;ServiceCategory;Priority;Size;A;Weight;50-100;ConsType;Letter;ZPO;FALSE;EPDZ;FALSE;;
EST_INT_PRI_ZONEC_WD6;neoznaczek;neoznaczek;neoStamp - international - priority - ZONEC - 100-350;neoStamp - international - priority - ZONEC - 100-350;1;1300;A;0;0;1300;01-02-2014;;;CONS;;Destination ;ZONEC;ServiceCategory;Priority;Size;A;Weight;100-350;ConsType;Letter;ZPO;FALSE;EPDZ;FALSE;;
EST_INT_PRI_ZONEC_WD7;neoznaczek;neoznaczek;neoStamp - international - priority - ZONEC - 350-500;neoStamp - international - priority - ZONEC - 350-500;1;2400;A;0;0;2400;01-02-2014;;;CONS;;Destination ;ZONEC;ServiceCategory;Priority;Size;A;Weight;350-500;ConsType;Letter;ZPO;FALSE;EPDZ;FALSE;;
EST_INT_PRI_ZONEC_WD8;neoznaczek;neoznaczek;neoStamp - international - priority - ZONEC - 500-1000;neoStamp - international - priority - ZONEC - 500-1000;1;4500;A;0;0;4500;01-02-2014;;;CONS;;Destination ;ZONEC;ServiceCategory;Priority;Size;A;Weight;500-1000;ConsType;Letter;ZPO;FALSE;EPDZ;FALSE;;
EST_INT_PRI_ZONEC_WD9;neoznaczek;neoznaczek;neoStamp - international - priority - ZONEC - 1000-2000;neoStamp - international - priority - ZONEC - 1000-2000;1;9500;A;0;0;9500;01-02-2014;;;CONS;;Destination ;ZONEC;ServiceCategory;Priority;Size;A;Weight;1000-2000;ConsType;Letter;ZPO;FALSE;EPDZ;FALSE;;
EST_INT_PRI_ZONED_WD4;neoznaczek;neoznaczek;neoStamp - international - priority - ZONED - 0-50;neoStamp - international - priority - ZONED - 0-50;1;520;A;0;0;520;01-02-2014;;;CONS;;Destination ;ZONED;ServiceCategory;Priority;Size;A;Weight;0-50;ConsType;Letter;ZPO;FALSE;EPDZ;FALSE;;
EST_INT_PRI_ZONED_WD5;neoznaczek;neoznaczek;neoStamp - international - priority - ZONED - 50-100;neoStamp - international - priority - ZONED - 50-100;1;1150;A;0;0;1150;01-02-2014;;;CONS;;Destination ;ZONED;ServiceCategory;Priority;Size;A;Weight;50-100;ConsType;Letter;ZPO;FALSE;EPDZ;FALSE;;
EST_INT_PRI_ZONED_WD6;neoznaczek;neoznaczek;neoStamp - international - priority - ZONED - 100-350;neoStamp - international - priority - ZONED - 100-350;1;1300;A;0;0;1300;01-02-2014;;;CONS;;Destination ;ZONED;ServiceCategory;Priority;Size;A;Weight;100-350;ConsType;Letter;ZPO;FALSE;EPDZ;FALSE;;
EST_INT_PRI_ZONED_WD7;neoznaczek;neoznaczek;neoStamp - international - priority - ZONED - 350-500;neoStamp - international - priority - ZONED - 350-500;1;3450;A;0;0;3450;01-02-2014;;;CONS;;Destination ;ZONED;ServiceCategory;Priority;Size;A;Weight;350-500;ConsType;Letter;ZPO;FALSE;EPDZ;FALSE;;
EST_INT_PRI_ZONED_WD8;neoznaczek;neoznaczek;neoStamp - international - priority - ZONED - 500-1000;neoStamp - international - priority - ZONED - 500-1000;1;6800;A;0;0;6800;01-02-2014;;;CONS;;Destination ;ZONED;ServiceCategory;Priority;Size;A;Weight;500-1000;ConsType;Letter;ZPO;FALSE;EPDZ;FALSE;;
EST_INT_PRI_ZONED_WD9;neoznaczek;neoznaczek;neoStamp - international - priority - ZONED - 1000-2000;neoStamp - international - priority - ZONED - 1000-2000;1;14700;A;0;0;14700;01-02-2014;;;CONS;;Destination ;ZONED;ServiceCategory;Priority;Size;A;Weight;1000-2000;ConsType;Letter;ZPO;FALSE;EPDZ;FALSE;;
EST_REG_1;neoznaczek;neoznaczek;neoStamp - Registered - no conf - domestic - economic - A - 0-350;neoStamp - Registered - no confirma - domestic - economic - A - 0-350;1;420;A;0;0;420;30-06-2013;;;CONS;;Destination;domestic;ServiceCategory;Priority;Size;A;Weight;0-350;ConsType;Registered;ZPO;FALSE;EPDZ;FALSE;;
EST_REG_10;neoznaczek;neoznaczek;neoStamp - Registered - ZPO - domestic - economic - B - 0-350;neoStamp - Registered - ZPO - domestic - economic - B - 0-350;1;940;A;0;0;940;30-06-2013;;;CONS;;Destination;domestic;ServiceCategory;Priority;Size;B;Weight;0-350;ConsType;Registered;ZPO;TRUE;EPDZ;FALSE;;
EST_REG_11;neoznaczek;neoznaczek;neoStamp - Registered - ZPO - domestic - economic - B - 350-1000;neoStamp - Registered - ZPO - domestic - economic - B - 350-1000;1;1020;A;0;0;1020;30-06-2013;;;CONS;;Destination;domestic;ServiceCategory;Priority;Size;B;Weight;350-1000;ConsType;Registered;ZPO;TRUE;EPDZ;FALSE;;
EST_REG_12;neoznaczek;neoznaczek;neoStamp - Registered - ZPO - domestic - economic - B - 1000-2000;neoStamp - Registered - ZPO - domestic - economic - B - 1000-2000;1;1140;A;0;0;1140;30-06-2013;;;CONS;;Destination;domestic;ServiceCategory;Priority;Size;B;Weight;1000-2000;ConsType;Registered;ZPO;TRUE;EPDZ;FALSE;;
EST_REG_13;neoznaczek;neoznaczek;neoStamp - Registered - EPDZ - domestic - economic - A - 0-350;neoStamp - Registered - EPDZ - domestic - economic - A - 0-350;1;470;A;0;0;470;30-06-2013;;;CONS;;Destination;domestic;ServiceCategory;Priority;Size;A;Weight;0-350;ConsType;Registered;ZPO;FALSE;EPDZ;TRUE;;
EST_REG_14;neoznaczek;neoznaczek;neoStamp - Registered - EPDZ - domestic - economic - A - 350-1000;neoStamp - Registered - EPDZ - domestic - economic - A - 350-1000;1;640;A;0;0;640;30-06-2013;;;CONS;;Destination;domestic;ServiceCategory;Priority;Size;A;Weight;350-1000;ConsType;Registered;ZPO;FALSE;EPDZ;TRUE;;
EST_REG_15;neoznaczek;neoznaczek;neoStamp - Registered - EPDZ - domestic - economic - A - 1000-2000;neoStamp - Registered - EPDZ - domestic - economic - A - 1000-2000;1;900;A;0;0;900;30-06-2013;;;CONS;;Destination;domestic;ServiceCategory;Priority;Size;A;Weight;1000-2000;ConsType;Registered;ZPO;FALSE;EPDZ;TRUE;;
EST_REG_16;neoznaczek;neoznaczek;neoStamp - Registered - EPDZ - domestic - economic - B - 0-350;neoStamp - Registered - EPDZ - domestic - economic - B - 0-350;1;800;A;0;0;800;30-06-2013;;;CONS;;Destination;domestic;ServiceCategory;Priority;Size;B;Weight;0-350;ConsType;Registered;ZPO;FALSE;EPDZ;TRUE;;
EST_REG_17;neoznaczek;neoznaczek;neoStamp - Registered - EPDZ - domestic - economic - B - 350-1000;neoStamp - Registered - EPDZ - domestic - economic - B - 350-1000;1;880;A;0;0;880;30-06-2013;;;CONS;;Destination;domestic;ServiceCategory;Priority;Size;B;Weight;350-1000;ConsType;Registered;ZPO;FALSE;EPDZ;TRUE;;
EST_REG_18;neoznaczek;neoznaczek;neoStamp - Registered - EPDZ - domestic - economic - B - 1000-2000;neoStamp - Registered - EPDZ - domestic - economic - B - 1000-2000;1;1000;A;0;0;1000;30-06-2013;;;CONS;;Destination;domestic;ServiceCategory;Priority;Size;B;Weight;1000-2000;ConsType;Registered;ZPO;FALSE;EPDZ;TRUE;;
EST_REG_19;neoznaczek;neoznaczek;neoStamp - Registered - ZPO - EPDZ - domestic - economic - A - 0-350;neoStamp - Reg - ZPO - EPDZ - domestic - economic - A - 0-350;1;660;A;0;0;660;30-06-2013;;;CONS;;Destination;domestic;ServiceCategory;Priority;Size;A;Weight;0-350;ConsType;Registered;ZPO;TRUE;EPDZ;TRUE;;
EST_REG_2;neoznaczek;neoznaczek;neoStamp - Registered - no conf - domestic - economic - A - 350-1000;neoStamp - Registered - no conf - domestic - economic - A - 350-1000;1;590;A;0;0;590;30-06-2013;;;CONS;;Destination;domestic;ServiceCategory;Priority;Size;A;Weight;350-1000;ConsType;Registered;ZPO;FALSE;EPDZ;FALSE;;
EST_REG_20;neoznaczek;neoznaczek;neoStamp - Reg - ZPO - EPDZ - domestic - economic - A - 350-1000;neoStamp - Reg - ZPO - EPDZ - domestic - economic - A - 350-1000;1;830;A;0;0;830;30-06-2013;;;CONS;;Destination;domestic;ServiceCategory;Priority;Size;A;Weight;350-1000;ConsType;Registered;ZPO;TRUE;EPDZ;TRUE;;
EST_REG_21;neoznaczek;neoznaczek;neoStamp - Reg - ZPO - EPDZ - domestic - economic - A - 1000-2000;neoStamp - Reg - ZPO - EPDZ - domestic - economic - A - 1000-2000;1;1090;A;0;0;1090;30-06-2013;;;CONS;;Destination;domestic;ServiceCategory;Priority;Size;A;Weight;1000-2000;ConsType;Registered;ZPO;TRUE;EPDZ;TRUE;;
EST_REG_22;neoznaczek;neoznaczek;neoStamp - Reg - ZPO - EPDZ - domestic - economic - B - 0-350;neoStamp - Reg - ZPO - EPDZ - domestic - economic - B - 0-350;1;990;A;0;0;990;30-06-2013;;;CONS;;Destination;domestic;ServiceCategory;Priority;Size;B;Weight;0-350;ConsType;Registered;ZPO;TRUE;EPDZ;TRUE;;
EST_REG_23;neoznaczek;neoznaczek;neoStamp - Reg - ZPO - EPDZ - domestic - economic - B - 350-1000;neoStamp - Reg - ZPO - EPDZ - domestic - economic - B - 350-1000;1;1070;A;0;0;1070;30-06-2013;;;CONS;;Destination;domestic;ServiceCategory;Priority;Size;B;Weight;350-1000;ConsType;Registered;ZPO;TRUE;EPDZ;TRUE;;
EST_REG_24;neoznaczek;neoznaczek;neoStamp - Reg - ZPO - EPDZ - domestic - economic - B - 1000-2000;neoStamp - Reg - ZPO - EPDZ - domestic - economic - B - 1000-2000;1;1190;A;0;0;1190;30-06-2013;;;CONS;;Destination;domestic;ServiceCategory;Priority;Size;B;Weight;1000-2000;ConsType;Registered;ZPO;TRUE;EPDZ;TRUE;;
EST_REG_3;neoznaczek;neoznaczek;neoStamp - Registered - no conf - domestic - economic - A - 1000-2000;neoStamp - Registered - no conf - domestic - economic - A - 1000-2000;1;850;A;0;0;850;30-06-2013;;;CONS;;Destination;domestic;ServiceCategory;Priority;Size;A;Weight;1000-2000;ConsType;Registered;ZPO;FALSE;EPDZ;FALSE;;
EST_REG_4;neoznaczek;neoznaczek;neoStamp - Registered - no conf - domestic - economic - B - 0-350;neoStamp - Registered - no conf - domestic - economic - B - 0-350;1;750;A;0;0;750;30-06-2013;;;CONS;;Destination;domestic;ServiceCategory;Priority;Size;B;Weight;0-350;ConsType;Registered;ZPO;FALSE;EPDZ;FALSE;;
EST_REG_49;neoznaczek;neoznaczek;neoStamp - Reg - no conf - internat - priority - ZONEA - 0-50;neoStamp - Reg - no conf - internat - priority - ZONEA - 0-50;1;1600;A;0;0;1600;01-02-2014;;;CONS;;Destination;ZONEA;ServiceCategory;Priority;Size;A;Weight;0-50;ConsType;Registered;ZPO;FALSE;EPDZ;FALSE;;
EST_REG_5;neoznaczek;neoznaczek;neoStamp - Registered - no conf - domestic - economic - B - 350-1000;neoStamp - Registered - no conf - domestic - economic - B - 350-1000;1;830;A;0;0;830;30-06-2013;;;CONS;;Destination;domestic;ServiceCategory;Priority;Size;B;Weight;350-1000;ConsType;Registered;ZPO;FALSE;EPDZ;FALSE;;
EST_REG_50;neoznaczek;neoznaczek;neoStamp - Reg - no conf - internat - priority - ZONEA - 50-100;neoStamp - Reg - no conf - internat - priority - ZONEA - 50-100;1;1700;A;0;0;1700;01-02-2014;;;CONS;;Destination;ZONEA;ServiceCategory;Priority;Size;A;Weight;50-100;ConsType;Registered;ZPO;FALSE;EPDZ;FALSE;;
EST_REG_51;neoznaczek;neoznaczek;neoStamp - Reg - no conf - internat - priority - ZONEA - 100-350;neoStamp - Reg - no conf - internat - priority - ZONEA - 100-350;1;1830;A;0;0;1830;01-02-2014;;;CONS;;Destination;ZONEA;ServiceCategory;Priority;Size;A;Weight;100-350;ConsType;Registered;ZPO;FALSE;EPDZ;FALSE;;
EST_REG_52;neoznaczek;neoznaczek;neoStamp - Reg - no conf - internat - priority - ZONEA - 350-500;neoStamp - Reg - no conf - internat - priority - ZONEA - 350-500;1;2060;A;0;0;2060;01-02-2014;;;CONS;;Destination;ZONEA;ServiceCategory;Priority;Size;A;Weight;350-500;ConsType;Registered;ZPO;FALSE;EPDZ;FALSE;;
EST_REG_53;neoznaczek;neoznaczek;neoStamp - Reg - no conf - internat - priority - ZONEA - 500-1000;neoStamp - Reg - no conf - internat - priority - ZONEA - 500-1000;1;3460;A;0;0;3460;01-02-2014;;;CONS;;Destination;ZONEA;ServiceCategory;Priority;Size;A;Weight;500-1000;ConsType;Registered;ZPO;FALSE;EPDZ;FALSE;;
EST_REG_54;neoznaczek;neoznaczek;neoStamp - Reg - no conf - internat - priority - ZONEA - 1000-2000;neoStamp - Reg - no conf - internat - priority - ZONEA - 1000-2000;1;6420;A;0;0;6420;01-02-2014;;;CONS;;Destination;ZONEA;ServiceCategory;Priority;Size;A;Weight;1000-2000;ConsType;Registered;ZPO;FALSE;EPDZ;FALSE;;
EST_REG_55;neoznaczek;neoznaczek;neoStamp - Reg - no conf - internat - priority - ZONEB - 0-50;neoStamp - Reg - no conf - internat - priority - ZONEB - 0-50;1;1600;A;0;0;1600;01-02-2014;;;CONS;;Destination ;ZONEB;ServiceCategory;Priority;Size;A;Weight;0-50;ConsType;Registered;ZPO;FALSE;EPDZ;FALSE;;
EST_REG_56;neoznaczek;neoznaczek;neoStamp - Reg - no conf - internat - priority - ZONEB - 50-100;neoStamp - Reg - no conf - internat - priority - ZONEB - 50-100;1;1700;A;0;0;1700;01-02-2014;;;CONS;;Destination ;ZONEB;ServiceCategory;Priority;Size;A;Weight;50-100;ConsType;Registered;ZPO;FALSE;EPDZ;FALSE;;
EST_REG_57;neoznaczek;neoznaczek;neoStamp - Reg - no conf - internat - priority - ZONEB - 100-350;neoStamp - Reg - no conf - internat - priority - ZONEB - 100-350;1;1830;A;0;0;1830;01-02-2014;;;CONS;;Destination ;ZONEB;ServiceCategory;Priority;Size;A;Weight;100-350;ConsType;Registered;ZPO;FALSE;EPDZ;FALSE;;
EST_REG_58;neoznaczek;neoznaczek;neoStamp - Reg - no conf - internat - priority - ZONEB - 350-500;neoStamp - Reg - no conf - internat - priority - ZONEB - 350-500;1;2460;A;0;0;2460;01-02-2014;;;CONS;;Destination ;ZONEB;ServiceCategory;Priority;Size;A;Weight;350-500;ConsType;Registered;ZPO;FALSE;EPDZ;FALSE;;
EST_REG_59;neoznaczek;neoznaczek;neoStamp - Reg - no conf - internat - priority - ZONEB - 500-1000;neoStamp - Reg - no conf - internat - priority - ZONEB - 500-1000;1;4330;A;0;0;4330;01-02-2014;;;CONS;;Destination ;ZONEB;ServiceCategory;Priority;Size;A;Weight;500-1000;ConsType;Registered;ZPO;FALSE;EPDZ;FALSE;;
EST_REG_6;neoznaczek;neoznaczek;neoStamp - Registered - no conf - domestic - economic - B - 1000-2000;neoStamp - Registered - no conf - domestic - economic - B - 1000-2000;1;950;A;0;0;950;30-06-2013;;;CONS;;Destination;domestic;ServiceCategory;Priority;Size;B;Weight;1000-2000;ConsType;Registered;ZPO;FALSE;EPDZ;FALSE;;
EST_REG_60;neoznaczek;neoznaczek;neoStamp - Reg - no conf - internat - priority - ZONEB - 1000-2000;neoStamp - Reg - no conf - internat - priority - ZONEB - 1000-2000;1;8230;A;0;0;8230;01-02-2014;;;CONS;;Destination ;ZONEB;ServiceCategory;Priority;Size;A;Weight;1000-2000;ConsType;Registered;ZPO;FALSE;EPDZ;FALSE;;
EST_REG_61;neoznaczek;neoznaczek;neoStamp - Reg - no conf - internat - priority - ZONEC - 0-50;neoStamp - Reg - no conf - internat - priority - ZONEC - 0-50;1;1600;A;0;0;1600;01-02-2014;;;CONS;;Destination ;ZONEC;ServiceCategory;Priority;Size;A;Weight;0-50;ConsType;Registered;ZPO;FALSE;EPDZ;FALSE;;
EST_REG_62;neoznaczek;neoznaczek;neoStamp - Reg - no conf - internat - priority - ZONEC - 50-100;neoStamp - Reg - no conf - internat - priority - ZONEC - 50-100;1;1700;A;0;0;1700;01-02-2014;;;CONS;;Destination ;ZONEC;ServiceCategory;Priority;Size;A;Weight;50-100;ConsType;Registered;ZPO;FALSE;EPDZ;FALSE;;
EST_REG_63;neoznaczek;neoznaczek;neoStamp - Reg - no conf - internat - priority - ZONEC - 100-350;neoStamp - Reg - no conf - internat - priority - ZONEC - 100-350;1;1830;A;0;0;1830;01-02-2014;;;CONS;;Destination ;ZONEC;ServiceCategory;Priority;Size;A;Weight;100-350;ConsType;Registered;ZPO;FALSE;EPDZ;FALSE;;
EST_REG_64;neoznaczek;neoznaczek;neoStamp - Reg - no conf - internat - priority - ZONEC - 350-500;neoStamp - Reg - no conf - internat - priority - ZONEC - 350-500;1;2930;A;0;0;2930;01-02-2014;;;CONS;;Destination ;ZONEC;ServiceCategory;Priority;Size;A;Weight;350-500;ConsType;Registered;ZPO;FALSE;EPDZ;FALSE;;
EST_REG_65;neoznaczek;neoznaczek;neoStamp - Reg - no conf - internat - priority - ZONEC - 500-1000;neoStamp - Reg - no conf - internat - priority - ZONEC - 500-1000;1;5030;A;0;0;5030;01-02-2014;;;CONS;;Destination ;ZONEC;ServiceCategory;Priority;Size;A;Weight;500-1000;ConsType;Registered;ZPO;FALSE;EPDZ;FALSE;;
EST_REG_66;neoznaczek;neoznaczek;neoStamp - Reg - no conf - internat - priority - ZONEC - 1000-2000;neoStamp - Reg - no conf - internat - priority - ZONEC - 1000-2000;1;10030;A;0;0;10030;01-02-2014;;;CONS;;Destination ;ZONEC;ServiceCategory;Priority;Size;A;Weight;1000-2000;ConsType;Registered;ZPO;FALSE;EPDZ;FALSE;;
EST_REG_67;neoznaczek;neoznaczek;neoStamp - Reg - no conf - internat - priority - ZONED - 0-50;neoStamp - Reg - no conf - internat - priority - ZONED - 0-50;1;1600;A;0;0;1600;01-02-2014;;;CONS;;Destination ;ZONED;ServiceCategory;Priority;Size;A;Weight;0-50;ConsType;Registered;ZPO;FALSE;EPDZ;FALSE;;
EST_REG_68;neoznaczek;neoznaczek;neoStamp - Reg - no conf - internat - priority - ZONED - 50-100;neoStamp - Reg - no conf - internat - priority - ZONED - 50-100;1;1700;A;0;0;1700;01-02-2014;;;CONS;;Destination ;ZONED;ServiceCategory;Priority;Size;A;Weight;50-100;ConsType;Registered;ZPO;FALSE;EPDZ;FALSE;;
EST_REG_69;neoznaczek;neoznaczek;neoStamp - Reg - no conf - internat - priority - ZONED - 100-350;neoStamp - Reg - no conf - internat - priority - ZONED - 100-350;1;1830;A;0;0;1830;01-02-2014;;;CONS;;Destination ;ZONED;ServiceCategory;Priority;Size;A;Weight;100-350;ConsType;Registered;ZPO;FALSE;EPDZ;FALSE;;
EST_REG_7;neoznaczek;neoznaczek;neoStamp - Registered - ZPO - domestic - economic - A - 0-350;neoStamp - Registered - ZPO - domestic - economic - A - 0-350;1;610;A;0;0;610;30-06-2013;;;CONS;;Destination;domestic;ServiceCategory;Priority;Size;A;Weight;0-350;ConsType;Registered;ZPO;TRUE;EPDZ;FALSE;;
EST_REG_70;neoznaczek;neoznaczek;neoStamp - Reg - no conf - internat - priority - ZONED - 350-500;neoStamp - Reg - no conf - internat - priority - ZONED - 350-500;1;3980;A;0;0;3980;01-02-2014;;;CONS;;Destination ;ZONED;ServiceCategory;Priority;Size;A;Weight;350-500;ConsType;Registered;ZPO;FALSE;EPDZ;FALSE;;
EST_REG_71;neoznaczek;neoznaczek;neoStamp - Reg - no conf - internat - priority - ZONED - 500-1000;neoStamp - Reg - no conf - internat - priority - ZONED - 500-1000;1;7330;A;0;0;7330;01-02-2014;;;CONS;;Destination ;ZONED;ServiceCategory;Priority;Size;A;Weight;500-1000;ConsType;Registered;ZPO;FALSE;EPDZ;FALSE;;
EST_REG_72;neoznaczek;neoznaczek;neoStamp - Reg - no conf - internat - priority - ZONED - 1000-2000;neoStamp - Reg - no conf - internat - priority - ZONED - 1000-2000;1;15230;A;0;0;15230;01-02-2014;;;CONS;;Destination ;ZONED;ServiceCategory;Priority;Size;A;Weight;1000-2000;ConsType;Registered;ZPO;FALSE;EPDZ;FALSE;;
EST_REG_73;neoznaczek;neoznaczek;neoStamp - Reg - ZPO - international - priority - ZONEA - 0-50;neoStamp - Reg - ZPO - international - priority - ZONEA - 0-50;1;1900;A;0;0;1900;01-02-2014;;;CONS;;Destination;ZONEA;ServiceCategory;Priority;Size;A;Weight;0-50;ConsType;Registered;ZPO;TRUE;EPDZ;FALSE;;
EST_REG_74;neoznaczek;neoznaczek;neoStamp - Reg - ZPO - international - priority - ZONEA - 50-100;neoStamp - Reg - ZPO - international - priority - ZONEA - 50-100;1;2000;A;0;0;2000;01-02-2014;;;CONS;;Destination;ZONEA;ServiceCategory;Priority;Size;A;Weight;50-100;ConsType;Registered;ZPO;TRUE;EPDZ;FALSE;;
EST_REG_75;neoznaczek;neoznaczek;neoStamp - Reg - ZPO - international - priority - ZONEA - 100-350;neoStamp - Reg - ZPO - international - priority - ZONEA - 100-350;1;2130;A;0;0;2130;01-02-2014;;;CONS;;Destination;ZONEA;ServiceCategory;Priority;Size;A;Weight;100-350;ConsType;Registered;ZPO;TRUE;EPDZ;FALSE;;
EST_REG_76;neoznaczek;neoznaczek;neoStamp - Reg - ZPO - international - priority - ZONEA - 350-500;neoStamp - Reg - ZPO - international - priority - ZONEA - 350-500;1;2360;A;0;0;2360;01-02-2014;;;CONS;;Destination;ZONEA;ServiceCategory;Priority;Size;A;Weight;350-500;ConsType;Registered;ZPO;TRUE;EPDZ;FALSE;;
EST_REG_77;neoznaczek;neoznaczek;neoStamp - Reg - ZPO - international - priority - ZONEA - 500-1000;neoStamp - Reg - ZPO - international - priority - ZONEA - 500-1000;1;3760;A;0;0;3760;01-02-2014;;;CONS;;Destination;ZONEA;ServiceCategory;Priority;Size;A;Weight;500-1000;ConsType;Registered;ZPO;TRUE;EPDZ;FALSE;;
EST_REG_78;neoznaczek;neoznaczek;neoStamp - Reg - ZPO - international - priority - ZONEA - 1000-2000;neoStamp - Reg - ZPO - international - priority - ZONEA - 1000-2000;1;6720;A;0;0;6720;01-02-2014;;;CONS;;Destination;ZONEA;ServiceCategory;Priority;Size;A;Weight;1000-2000;ConsType;Registered;ZPO;TRUE;EPDZ;FALSE;;
EST_REG_79;neoznaczek;neoznaczek;neoStamp - Reg - ZPO - international - priority - ZONEB - 0-50;neoStamp - Reg - ZPO - international - priority - ZONEB - 0-50;1;1900;A;0;0;1900;01-02-2014;;;CONS;;Destination ;ZONEB;ServiceCategory;Priority;Size;A;Weight;0-50;ConsType;Registered;ZPO;TRUE;EPDZ;FALSE;;
EST_REG_8;neoznaczek;neoznaczek;neoStamp - Registered - ZPO - domestic - economic - A - 350-1000;neoStamp - Registered - ZPO - domestic - economic - A - 350-1000;1;780;A;0;0;780;30-06-2013;;;CONS;;Destination;domestic;ServiceCategory;Priority;Size;A;Weight;350-1000;ConsType;Registered;ZPO;TRUE;EPDZ;FALSE;;
EST_REG_80;neoznaczek;neoznaczek;neoStamp - Reg - ZPO - international - priority - ZONEB - 50-100;neoStamp - Reg - ZPO - international - priority - ZONEB - 50-100;1;2000;A;0;0;2000;01-02-2014;;;CONS;;Destination ;ZONEB;ServiceCategory;Priority;Size;A;Weight;50-100;ConsType;Registered;ZPO;TRUE;EPDZ;FALSE;;
EST_REG_81;neoznaczek;neoznaczek;neoStamp - Reg - ZPO - international - priority - ZONEB - 100-350;neoStamp - Reg - ZPO - international - priority - ZONEB - 100-350;1;2130;A;0;0;2130;01-02-2014;;;CONS;;Destination ;ZONEB;ServiceCategory;Priority;Size;A;Weight;100-350;ConsType;Registered;ZPO;TRUE;EPDZ;FALSE;;
EST_REG_82;neoznaczek;neoznaczek;neoStamp - Reg - ZPO - international - priority - ZONEB - 350-500;neoStamp - Reg - ZPO - international - priority - ZONEB - 350-500;1;2760;A;0;0;2760;01-02-2014;;;CONS;;Destination ;ZONEB;ServiceCategory;Priority;Size;A;Weight;350-500;ConsType;Registered;ZPO;TRUE;EPDZ;FALSE;;
EST_REG_83;neoznaczek;neoznaczek;neoStamp - Reg - ZPO - international - priority - ZONEB - 500-1000;neoStamp - Reg - ZPO - international - priority - ZONEB - 500-1000;1;4630;A;0;0;4630;01-02-2014;;;CONS;;Destination ;ZONEB;ServiceCategory;Priority;Size;A;Weight;500-1000;ConsType;Registered;ZPO;TRUE;EPDZ;FALSE;;
EST_REG_84;neoznaczek;neoznaczek;neoStamp - Reg - ZPO - international - priority - ZONEB - 1000-2000;neoStamp - Reg - ZPO - international - priority - ZONEB - 1000-2000;1;8530;A;0;0;8530;01-02-2014;;;CONS;;Destination ;ZONEB;ServiceCategory;Priority;Size;A;Weight;1000-2000;ConsType;Registered;ZPO;TRUE;EPDZ;FALSE;;
EST_REG_85;neoznaczek;neoznaczek;neoStamp - Reg - ZPO - international - priority - ZONEC - 0-50;neoStamp - Reg - ZPO - international - priority - ZONEC - 0-50;1;1900;A;0;0;1900;01-02-2014;;;CONS;;Destination ;ZONEC;ServiceCategory;Priority;Size;A;Weight;0-50;ConsType;Registered;ZPO;TRUE;EPDZ;FALSE;;
EST_REG_86;neoznaczek;neoznaczek;neoStamp - Reg - ZPO - international - priority - ZONEC - 50-100;neoStamp - Reg - ZPO - international - priority - ZONEC - 50-100;1;2000;A;0;0;2000;01-02-2014;;;CONS;;Destination ;ZONEC;ServiceCategory;Priority;Size;A;Weight;50-100;ConsType;Registered;ZPO;TRUE;EPDZ;FALSE;;
EST_REG_87;neoznaczek;neoznaczek;neoStamp - Reg - ZPO - international - priority - ZONEC - 100-350;neoStamp - Reg - ZPO - international - priority - ZONEC - 100-350;1;2130;A;0;0;2130;01-02-2014;;;CONS;;Destination ;ZONEC;ServiceCategory;Priority;Size;A;Weight;100-350;ConsType;Registered;ZPO;TRUE;EPDZ;FALSE;;
EST_REG_88;neoznaczek;neoznaczek;neoStamp - Reg - ZPO - international - priority - ZONEC - 350-500;neoStamp - Reg - ZPO - international - priority - ZONEC - 350-500;1;3230;A;0;0;3230;01-02-2014;;;CONS;;Destination ;ZONEC;ServiceCategory;Priority;Size;A;Weight;350-500;ConsType;Registered;ZPO;TRUE;EPDZ;FALSE;;
EST_REG_89;neoznaczek;neoznaczek;neoStamp - Reg - ZPO - international - priority - ZONEC - 500-1000;neoStamp - Reg - ZPO - international - priority - ZONEC - 500-1000;1;5330;A;0;0;5330;01-02-2014;;;CONS;;Destination ;ZONEC;ServiceCategory;Priority;Size;A;Weight;500-1000;ConsType;Registered;ZPO;TRUE;EPDZ;FALSE;;
EST_REG_9;neoznaczek;neoznaczek;neoStamp - Registered - ZPO - domestic - economic - A - 1000-2000;neoStamp - Registered - ZPO - domestic - economic - A - 1000-2000;1;1040;A;0;0;1040;30-06-2013;;;CONS;;Destination;domestic;ServiceCategory;Priority;Size;A;Weight;1000-2000;ConsType;Registered;ZPO;TRUE;EPDZ;FALSE;;
EST_REG_90;neoznaczek;neoznaczek;neoStamp - Reg - ZPO - international - priority - ZONEC - 1000-2000;neoStamp - Reg - ZPO - international - priority - ZONEC - 1000-2000;1;10330;A;0;0;10330;01-02-2014;;;CONS;;Destination ;ZONEC;ServiceCategory;Priority;Size;A;Weight;1000-2000;ConsType;Registered;ZPO;TRUE;EPDZ;FALSE;;
EST_REG_91;neoznaczek;neoznaczek;neoStamp - Reg - ZPO - international - priority - ZONED - 0-50;neoStamp - Reg - ZPO - international - priority - ZONED - 0-50;1;1900;A;0;0;1900;01-02-2014;;;CONS;;Destination ;ZONED;ServiceCategory;Priority;Size;A;Weight;0-50;ConsType;Registered;ZPO;TRUE;EPDZ;FALSE;;
EST_REG_92;neoznaczek;neoznaczek;neoStamp - Reg - ZPO - international - priority - ZONED - 50-100;neoStamp - Reg - ZPO - international - priority - ZONED - 50-100;1;2000;A;0;0;2000;01-02-2014;;;CONS;;Destination ;ZONED;ServiceCategory;Priority;Size;A;Weight;50-100;ConsType;Registered;ZPO;TRUE;EPDZ;FALSE;;
EST_REG_93;neoznaczek;neoznaczek;neoStamp - Reg - ZPO - international - priority - ZONED - 100-350;neoStamp - Reg - ZPO - international - priority - ZONED - 100-350;1;2130;A;0;0;2130;01-02-2014;;;CONS;;Destination ;ZONED;ServiceCategory;Priority;Size;A;Weight;100-350;ConsType;Registered;ZPO;TRUE;EPDZ;FALSE;;
EST_REG_94;neoznaczek;neoznaczek;neoStamp - Reg - ZPO - international - priority - ZONED - 350-500;neoStamp - Reg - ZPO - international - priority - ZONED - 350-500;1;4280;A;0;0;4280;01-02-2014;;;CONS;;Destination ;ZONED;ServiceCategory;Priority;Size;A;Weight;350-500;ConsType;Registered;ZPO;TRUE;EPDZ;FALSE;;
EST_REG_95;neoznaczek;neoznaczek;neoStamp - Reg - ZPO - international - priority - ZONED - 500-1000;neoStamp - Reg - ZPO - international - priority - ZONED - 500-1000;1;7630;A;0;0;7630;01-02-2014;;;CONS;;Destination ;ZONED;ServiceCategory;Priority;Size;A;Weight;500-1000;ConsType;Registered;ZPO;TRUE;EPDZ;FALSE;;
EST_REG_96;neoznaczek;neoznaczek;neoStamp - Reg - ZPO - international - priority - ZONED - 1000-2000;neoStamp - Reg - ZPO - international - priority - ZONED - 1000-2000;1;15530;A;0;0;15530;01-02-2014;;;CONS;;Destination ;ZONED;ServiceCategory;Priority;Size;A;Weight;1000-2000;ConsType;Registered;ZPO;TRUE;EPDZ;FALSE;;
